{
  "organisasjon": [
    {
      "id": 10000002,
      "orgKortnavn": "BOTT",
      "organisasjonsnavn": "BOTT - 004",
      "leder": [],
      "pdo": null,
      "type": null,
      "orgKostnadssted": null,
      "autWf": [],
      "overordnOrgenhetId": null
    },
    {
      "id": 10000003,
      "orgKortnavn": "BOTT",
      "organisasjonsnavn": "BOTT - 001",
      "leder": null,
      "pdo": "TROM",
      "type": "88",
      "orgKostnadssted": "0020000000",
      "autWf": null,
      "overordnOrgenhetId": 10000002
    },
    {
      "id": 10000006,
      "orgKortnavn": 20000000,
      "organisasjonsnavn": "Stab​ - TEST002 - IKKE HOGGESTAB",
      "leder": [
        {
          "lederAnsattnr": "00101181",
          "lederBrukerident": "VESSAN"
        }
      ],
      "pdo": "TROM",
      "type": "88",
      "orgKostnadssted": "0020000000",
      "autWf": [
        {
          "type": "AZWF",
          "bruker": "9900INGANT",
          "knytningStart": "2020-09-01",
          "knytningSlutt": "9999-12-31"
        },
        {
          "type": "AZWF",
          "bruker": "9900INGEIN",
          "knytningStart": "2020-09-01",
          "knytningSlutt": "9999-12-31"
        },
        {
          "type": "A290",
          "bruker": "9900INGANT",
          "knytningStart": "2020-09-01",
          "knytningSlutt": "9999-12-31"
        }
      ],
      "overordnOrgenhetId": null
    },
    {
      "id": 10000007,
      "orgKortnavn": 20100000,
      "organisasjonsnavn": "Eiendomsavd",
      "leder": [
        {
          "lederAnsattnr": "00101184",
          "lederBrukerident": "ANBORT"
        }
      ],
      "pdo": "TROM",
      "type": "88",
      "orgKostnadssted": "0020100000",
      "autWf": [
        {
          "type": "AZWF",
          "bruker": "9900INGEIN",
          "knytningStart": "2020-09-01",
          "knytningSlutt": "9999-12-31"
        }
      ],
      "overordnOrgenhetId": 10000006
    },
    {
      "id": 10000008,
      "orgKortnavn": 20101000,
      "organisasjonsnavn": "seksjon for drift - ZX",
      "leder": [
        null
      ],
      "pdo": "TROM",
      "type": "88",
      "orgKostnadssted": "0020101000",
      "autWf": [
        {
          "type": "AZWF",
          "bruker": "9900INGEIN",
          "knytningStart": "2020-09-01",
          "knytningSlutt": "9999-12-31"
        }
      ],
      "overordnOrgenhetId": 10000006
    },
    {
      "id": 10000009,
      "orgKortnavn": 20101010,
      "organisasjonsnavn": "faggruppe renhold",
      "leder": [
        {
          "lederAnsattnr": "00101189",
          "lederBrukerident": "SOLMYH"
        },
        {
          "lederAnsattnr": "00101191",
          "lederBrukerident": "ELIFJA"
        }
      ],
      "pdo": "TROM",
      "type": "88",
      "orgKostnadssted": "0020101010",
      "autWf": [
        {
          "type": "AZWF",
          "bruker": "9900INGEIN",
          "knytningStart": "2020-09-01",
          "knytningSlutt": "9999-12-31"
        }
      ],
      "overordnOrgenhetId": 10000008
    },
    {
      "id": 10000010,
      "orgKortnavn": 20101020,
      "organisasjonsnavn": "faggruppe driftsområde 1",
      "leder": [
        null
      ],
      "pdo": "TROM",
      "type": "88",
      "orgKostnadssted": "0020101020",
      "autWf": [
        {
          "type": "AZWF",
          "bruker": "9900INGANT",
          "knytningStart": "2020-09-01",
          "knytningSlutt": "9999-12-31"
        },
        {
          "type": "AZWF",
          "bruker": "9900INGEIN",
          "knytningStart": "2020-09-01",
          "knytningSlutt": "9999-12-31"
        }
      ],
      "overordnOrgenhetId": 10000008
    },
    {
      "id": 10000011,
      "orgKortnavn": 11000000,
      "organisasjonsnavn": "UiT fakultet",
      "leder": [
        {
          "lederAnsattnr": "00101068",
          "lederBrukerident": "INGANT"
        },
        {
          "lederAnsattnr": "00101700"
        }
      ],
      "pdo": "TROM",
      "type": "88",
      "orgKostnadssted": "0011000000",
      "autWf": [
        {
          "type": "A290",
          "bruker": "9900SISO",
          "knytningStart": "2019-10-03",
          "knytningSlutt": "9999-12-31"
        },
        {
          "type": "A290",
          "bruker": "9900IDIN",
          "knytningStart": "2019-10-03",
          "knytningSlutt": "9999-12-31"
        },
        {
          "type": "A290",
          "bruker": "9900LAJO",
          "knytningStart": "2019-10-03",
          "knytningSlutt": "9999-12-31"
        },
        {
          "type": "A290",
          "bruker": "9900LIRI",
          "knytningStart": "2020-05-01",
          "knytningSlutt": "9999-12-31"
        },
        {
          "type": "A290",
          "bruker": "9900TOST",
          "knytningStart": "2020-06-15",
          "knytningSlutt": "9999-12-31"
        },
        {
          "type": "A290",
          "bruker": "9900INGANT",
          "knytningStart": "2020-02-01",
          "knytningSlutt": "9999-12-31"
        },
        {
          "type": "AZWF",
          "bruker": "9900INGANT",
          "knytningStart": "2020-02-01",
          "knytningSlutt": "9999-12-31"
        },
        {
          "type": "A290",
          "bruker": "9900JOSSOL",
          "knytningStart": "2020-01-01",
          "knytningSlutt": "9999-12-31"
        },
        {
          "type": "AZWF",
          "bruker": "9900LAJO",
          "knytningStart": "2020-03-26",
          "knytningSlutt": "9999-12-31"
        },
        {
          "type": "A290",
          "bruker": "9900ROGH",
          "knytningStart": "2020-06-15",
          "knytningSlutt": "9999-12-31"
        }
      ],
      "overordnOrgenhetId": 10000003
    },
    {
      "id": 10000011,
      "orgKortnavn": 11000000,
      "organisasjonsnavn": "UiT fakultet",
      "leder": [
        {
          "lederAnsattnr": "00101068",
          "lederBrukerident": "INGANT"
        },
        {
          "lederAnsattnr": "00101700"
        }
      ],
      "pdo": "TROM",
      "type": null,
      "orgKostnadssted": "0011000000",
      "autWf": [
        {
          "type": "A290",
          "bruker": "9900SISO",
          "knytningStart": "2019-10-03",
          "knytningSlutt": "9999-12-31"
        },
        {
          "type": "A290",
          "bruker": "9900IDIN",
          "knytningStart": "2019-10-03",
          "knytningSlutt": "9999-12-31"
        },
        {
          "type": "A290",
          "bruker": "9900LAJO",
          "knytningStart": "2019-10-03",
          "knytningSlutt": "9999-12-31"
        },
        {
          "type": "A290",
          "bruker": "9900LIRI",
          "knytningStart": "2020-05-01",
          "knytningSlutt": "9999-12-31"
        },
        {
          "type": "A290",
          "bruker": "9900TOST",
          "knytningStart": "2020-06-15",
          "knytningSlutt": "9999-12-31"
        },
        {
          "type": "A290",
          "bruker": "9900INGANT",
          "knytningStart": "2020-02-01",
          "knytningSlutt": "9999-12-31"
        },
        {
          "type": "AZWF",
          "bruker": "9900INGANT",
          "knytningStart": "2020-02-01",
          "knytningSlutt": "9999-12-31"
        },
        {
          "type": "A290",
          "bruker": "9900JOSSOL",
          "knytningStart": "2020-01-01",
          "knytningSlutt": "9999-12-31"
        },
        {
          "type": "AZWF",
          "bruker": "9900LAJO",
          "knytningStart": "2020-03-26",
          "knytningSlutt": "9999-12-31"
        },
        {
          "type": "A290",
          "bruker": "9900ROGH",
          "knytningStart": "2020-06-15",
          "knytningSlutt": "9999-12-31"
        }
      ],
      "overordnOrgenhetId": 10000003
    },
    {
      "id": 10000011,
      "orgKortnavn": 11000000,
      "organisasjonsnavn": "UiT fakultet",
      "leder": [
        {
          "lederAnsattnr": "00101068",
          "lederBrukerident": "INGANT"
        },
        {
          "lederAnsattnr": "00101700"
        }
      ],
      "pdo": "TROM",
      "type": "88",
      "orgKostnadssted": "0011000000",
      "autWf": [
        {
          "type": "A290",
          "bruker": "9900SISO",
          "knytningStart": "2019-10-03",
          "knytningSlutt": "9999-12-31"
        },
        {
          "type": "A290",
          "bruker": "9900IDIN",
          "knytningStart": "2019-10-03",
          "knytningSlutt": "9999-12-31"
        },
        {
          "type": "A290",
          "bruker": "9900LAJO",
          "knytningStart": "2019-10-03",
          "knytningSlutt": "9999-12-31"
        },
        {
          "type": "A290",
          "bruker": "9900LIRI",
          "knytningStart": "2020-05-01",
          "knytningSlutt": "9999-12-31"
        },
        {
          "type": "A290",
          "bruker": "9900TOST",
          "knytningStart": "2020-06-15",
          "knytningSlutt": "9999-12-31"
        },
        {
          "type": "A290",
          "bruker": "9900INGANT",
          "knytningStart": "2020-02-01",
          "knytningSlutt": "9999-12-31"
        },
        {
          "type": "AZWF",
          "bruker": "9900INGANT",
          "knytningStart": "2020-02-01",
          "knytningSlutt": "9999-12-31"
        },
        {
          "type": "A290",
          "bruker": "9900JOSSOL",
          "knytningStart": "2020-01-01",
          "knytningSlutt": "9999-12-31"
        },
        {
          "type": "AZWF",
          "bruker": "9900LAJO",
          "knytningStart": "2020-03-26",
          "knytningSlutt": "9999-12-31"
        },
        {
          "type": "A290",
          "bruker": "9900ROGH",
          "knytningStart": "2020-06-15",
          "knytningSlutt": "9999-12-31"
        }
      ],
      "overordnOrgenhetId": 10000003
    },
    {
      "id": 10000012,
      "orgKortnavn": 11200000,
      "organisasjonsnavn": "Institutt for arktisk og marinbiologi",
      "leder": [
        {
          "lederAnsattnr": "00101071",
          "lederBrukerident": "ODDAAR"
        }
      ],
      "pdo": "TROM",
      "type": null,
      "orgKostnadssted": "0011200000",
      "autWf": [
        {
          "type": "AZWF",
          "bruker": "9900INGANT",
          "knytningStart": "2020-09-01",
          "knytningSlutt": "9999-12-31"
        },
        {
          "type": "AZWF",
          "bruker": "9900INGEIN",
          "knytningStart": "2020-09-01",
          "knytningSlutt": "9999-12-31"
        }
      ],
      "overordnOrgenhetId": 10000011
    },
    {
      "id": 10000013,
      "orgKortnavn": 11400000,
      "organisasjonsnavn": "Norges fiskerihøgskole",
      "leder": [
        {
          "lederAnsattnr": "00101077",
          "lederBrukerident": "ASBTRA"
        },
        {
          "lederAnsattnr": "00101079",
          "lederBrukerident": "ELLOGN"
        }
      ],
      "pdo": "TROM",
      "type": "88",
      "orgKostnadssted": "0011400000",
      "autWf": [
        null
      ],
      "overordnOrgenhetId": 10000011
    },
    {
      "id": 10000013,
      "orgKortnavn": 11400000,
      "organisasjonsnavn": "Norges fiskerihøgskole",
      "leder": [
        {
          "lederAnsattnr": "00101077",
          "lederBrukerident": "ASBTRA"
        },
        {
          "lederAnsattnr": "00101079",
          "lederBrukerident": "ELLOGN"
        }
      ],
      "pdo": "TROM",
      "type": null,
      "orgKostnadssted": "0011400000",
      "autWf": [
        null
      ],
      "overordnOrgenhetId": 10000011
    },
    {
      "id": 10000013,
      "orgKortnavn": 11400000,
      "organisasjonsnavn": "Norges fiskerihøgskole",
      "leder": [
        {
          "lederAnsattnr": "00101077",
          "lederBrukerident": "ASBTRA"
        },
        {
          "lederAnsattnr": "00101079",
          "lederBrukerident": "ELLOGN"
        }
      ],
      "pdo": "TROM",
      "type": "88",
      "orgKostnadssted": "0011400000",
      "autWf": [
        null
      ],
      "overordnOrgenhetId": 10000011
    },
    {
      "id": 10000013,
      "orgKortnavn": 11400000,
      "organisasjonsnavn": "Norges fiskerihøgskole",
      "leder": [
        {
          "lederAnsattnr": "00101077",
          "lederBrukerident": "ASBTRA"
        },
        {
          "lederAnsattnr": "00101079",
          "lederBrukerident": "ELLOGN"
        }
      ],
      "pdo": "TROM",
      "type": null,
      "orgKostnadssted": "0011400000",
      "autWf": [
        null
      ],
      "overordnOrgenhetId": 10000011
    },
    {
      "id": 10000014,
      "orgKortnavn": 11600000,
      "organisasjonsnavn": "Handelshøgskolen  ved UiT",
      "leder": [
        {
          "lederAnsattnr": "00101078",
          "lederBrukerident": "RUTDYP"
        },
        {
          "lederAnsattnr": "00101080",
          "lederBrukerident": "TOVAGL"
        }
      ],
      "pdo": "TROM",
      "type": null,
      "orgKostnadssted": "0011600000",
      "autWf": [
        {
          "type": "AZWF",
          "bruker": "9900INGANT",
          "knytningStart": "2020-09-01",
          "knytningSlutt": "9999-12-31"
        },
        {
          "type": "AZWF",
          "bruker": "9900INGEIN",
          "knytningStart": "2020-09-01",
          "knytningSlutt": "9999-12-31"
        }
      ],
      "overordnOrgenhetId": 10000011
    },
    {
      "id": 10000014,
      "orgKortnavn": 11600000,
      "organisasjonsnavn": "Handelshøgskolen  ved UiT",
      "leder": [
        {
          "lederAnsattnr": "00101078",
          "lederBrukerident": "RUTDYP"
        },
        {
          "lederAnsattnr": "00101080",
          "lederBrukerident": "TOVAGL"
        }
      ],
      "pdo": "TROM",
      "type": "88",
      "orgKostnadssted": "0011600000",
      "autWf": [
        {
          "type": "AZWF",
          "bruker": "9900INGANT",
          "knytningStart": "2020-09-01",
          "knytningSlutt": "9999-12-31"
        },
        {
          "type": "AZWF",
          "bruker": "9900INGEIN",
          "knytningStart": "2020-09-01",
          "knytningSlutt": "9999-12-31"
        }
      ],
      "overordnOrgenhetId": 10000011
    },
    {
      "id": 10000014,
      "orgKortnavn": 11600000,
      "organisasjonsnavn": "Handelshøgskolen  ved UiT",
      "leder": [
        {
          "lederAnsattnr": "00101078",
          "lederBrukerident": "RUTDYP"
        },
        {
          "lederAnsattnr": "00101080",
          "lederBrukerident": "TOVAGL"
        }
      ],
      "pdo": "TROM",
      "type": null,
      "orgKostnadssted": "0011600000",
      "autWf": [
        {
          "type": "AZWF",
          "bruker": "9900INGANT",
          "knytningStart": "2020-09-01",
          "knytningSlutt": "9999-12-31"
        },
        {
          "type": "AZWF",
          "bruker": "9900INGEIN",
          "knytningStart": "2020-09-01",
          "knytningSlutt": "9999-12-31"
        }
      ],
      "overordnOrgenhetId": 10000011
    },
    {
      "id": 10000016,
      "orgKortnavn": 11800000,
      "organisasjonsnavn": "Tromsø museum",
      "leder": [
        {
          "lederAnsattnr": "00101092",
          "lederBrukerident": "TROFOL"
        }
      ],
      "pdo": "TROM",
      "type": null,
      "orgKostnadssted": "0011800000",
      "autWf": [
        {
          "type": "AZWF",
          "bruker": "9900INGANT",
          "knytningStart": "2020-09-01",
          "knytningSlutt": "9999-12-31"
        },
        {
          "type": "AZWF",
          "bruker": "9900INGEIN",
          "knytningStart": "2020-09-01",
          "knytningSlutt": "9999-12-31"
        }
      ],
      "overordnOrgenhetId": 10000011
    },
    {
      "id": 10000017,
      "orgKortnavn": 11601010,
      "organisasjonsnavn": "Faggruppe økonomi Tromsø",
      "leder": [
        {
          "lederAnsattnr": "00101084",
          "lederBrukerident": "ALFLOF"
        },
        {
          "lederAnsattnr": "00101087",
          "lederBrukerident": "GISSKJ"
        }
      ],
      "pdo": "TROM",
      "type": "88",
      "orgKostnadssted": "0011601010",
      "autWf": [
        null
      ],
      "overordnOrgenhetId": 10000014
    },
    {
      "id": 10000017,
      "orgKortnavn": 11601010,
      "organisasjonsnavn": "Faggruppe økonomi Tromsø",
      "leder": [
        {
          "lederAnsattnr": "00101084",
          "lederBrukerident": "ALFLOF"
        },
        {
          "lederAnsattnr": "00101087",
          "lederBrukerident": "GISSKJ"
        }
      ],
      "pdo": "TROM",
      "type": null,
      "orgKostnadssted": "0011601010",
      "autWf": [
        null
      ],
      "overordnOrgenhetId": 10000014
    },
    {
      "id": 10000018,
      "orgKortnavn": 11603000,
      "organisasjonsnavn": "Handelshøgskolen  ved UiT​ i Narvik",
      "leder": [
        {
          "lederAnsattnr": "00101089",
          "lederBrukerident": "RICROL"
        }
      ],
      "pdo": "TROM",
      "type": null,
      "orgKostnadssted": "0011603000",
      "autWf": [
        {
          "type": "AZWF",
          "bruker": "9900INGANT",
          "knytningStart": "2020-09-01",
          "knytningSlutt": "9999-12-31"
        },
        {
          "type": "AZWF",
          "bruker": "9900INGEIN",
          "knytningStart": "2020-09-01",
          "knytningSlutt": "9999-12-31"
        }
      ],
      "overordnOrgenhetId": 10000014
    },
    {
      "id": 10000019,
      "orgKortnavn": 11802000,
      "organisasjonsnavn": "Polarmuseet",
      "leder": [
        {
          "lederAnsattnr": "00101096",
          "lederBrukerident": "JARGAB"
        }
      ],
      "pdo": "TROM",
      "type": null,
      "orgKostnadssted": "0011802000",
      "autWf": [
        null
      ],
      "overordnOrgenhetId": 10000016
    },
    {
      "id": 10000020,
      "orgKortnavn": 12000000,
      "organisasjonsnavn": "UiB – MN fakultet",
      "leder": [
        {
          "lederAnsattnr": "00101100",
          "lederBrukerident": "JARWES"
        }
      ],
      "pdo": "TROM",
      "type": "88",
      "orgKostnadssted": "0012200000",
      "autWf": [
        {
          "type": "AZWF",
          "bruker": "9900INGEIN",
          "knytningStart": "2020-09-01",
          "knytningSlutt": "9999-12-31"
        },
        {
          "type": "A290",
          "bruker": "9900GEJO",
          "knytningStart": "2019-10-03",
          "knytningSlutt": "9999-12-31"
        },
        {
          "type": "A290",
          "bruker": "9900ANGA",
          "knytningStart": "2019-10-03",
          "knytningSlutt": "9999-12-31"
        },
        {
          "type": "A290",
          "bruker": "9900BEGR",
          "knytningStart": "2019-10-03",
          "knytningSlutt": "9999-12-31"
        },
        {
          "type": "A290",
          "bruker": "9900KAFU",
          "knytningStart": "2019-10-03",
          "knytningSlutt": "9999-12-31"
        },
        {
          "type": "A290",
          "bruker": "9900KJAA",
          "knytningStart": "2019-10-03",
          "knytningSlutt": "9999-12-31"
        },
        {
          "type": "A290",
          "bruker": "9900ANBE",
          "knytningStart": "2020-02-19",
          "knytningSlutt": "9999-12-31"
        },
        {
          "type": "A290",
          "bruker": "9900ANSU",
          "knytningStart": "2020-02-19",
          "knytningSlutt": "9999-12-31"
        },
        {
          "type": "A290",
          "bruker": "9900DAKN",
          "knytningStart": "2020-02-19",
          "knytningSlutt": "9999-12-31"
        },
        {
          "type": "A290",
          "bruker": "9900ELVA",
          "knytningStart": "2020-02-19",
          "knytningSlutt": "9999-12-31"
        },
        {
          "type": "A290",
          "bruker": "9900GUMO",
          "knytningStart": "2020-02-19",
          "knytningSlutt": "9999-12-31"
        },
        {
          "type": "A290",
          "bruker": "9900IVST",
          "knytningStart": "2020-02-19",
          "knytningSlutt": "9999-12-31"
        },
        {
          "type": "A290",
          "bruker": "9900LABA",
          "knytningStart": "2020-02-19",
          "knytningSlutt": "9999-12-31"
        },
        {
          "type": "A290",
          "bruker": "9900TESK",
          "knytningStart": "2020-02-19",
          "knytningSlutt": "9999-12-31"
        },
        {
          "type": "A290",
          "bruker": "9900LILLOS",
          "knytningStart": "2020-01-01",
          "knytningSlutt": "9999-12-31"
        },
        {
          "type": "A290",
          "bruker": "9900KARIEL",
          "knytningStart": "2020-01-01",
          "knytningSlutt": "9999-12-31"
        },
        {
          "type": "A290",
          "bruker": "9900APOLJ",
          "knytningStart": "2020-05-26",
          "knytningSlutt": "9999-12-31"
        }
      ],
      "overordnOrgenhetId": 10000003
    },
    {
      "id": 10000020,
      "orgKortnavn": 12000000,
      "organisasjonsnavn": "UiB – MN fakultet",
      "leder": [
        {
          "lederAnsattnr": "00101100",
          "lederBrukerident": "JARWES"
        }
      ],
      "pdo": "TROM",
      "type": null,
      "orgKostnadssted": "0012200000",
      "autWf": [
        {
          "type": "AZWF",
          "bruker": "9900INGEIN",
          "knytningStart": "2020-09-01",
          "knytningSlutt": "9999-12-31"
        },
        {
          "type": "A290",
          "bruker": "9900GEJO",
          "knytningStart": "2019-10-03",
          "knytningSlutt": "9999-12-31"
        },
        {
          "type": "A290",
          "bruker": "9900ANGA",
          "knytningStart": "2019-10-03",
          "knytningSlutt": "9999-12-31"
        },
        {
          "type": "A290",
          "bruker": "9900BEGR",
          "knytningStart": "2019-10-03",
          "knytningSlutt": "9999-12-31"
        },
        {
          "type": "A290",
          "bruker": "9900KAFU",
          "knytningStart": "2019-10-03",
          "knytningSlutt": "9999-12-31"
        },
        {
          "type": "A290",
          "bruker": "9900KJAA",
          "knytningStart": "2019-10-03",
          "knytningSlutt": "9999-12-31"
        },
        {
          "type": "A290",
          "bruker": "9900ANBE",
          "knytningStart": "2020-02-19",
          "knytningSlutt": "9999-12-31"
        },
        {
          "type": "A290",
          "bruker": "9900ANSU",
          "knytningStart": "2020-02-19",
          "knytningSlutt": "9999-12-31"
        },
        {
          "type": "A290",
          "bruker": "9900DAKN",
          "knytningStart": "2020-02-19",
          "knytningSlutt": "9999-12-31"
        },
        {
          "type": "A290",
          "bruker": "9900ELVA",
          "knytningStart": "2020-02-19",
          "knytningSlutt": "9999-12-31"
        },
        {
          "type": "A290",
          "bruker": "9900GUMO",
          "knytningStart": "2020-02-19",
          "knytningSlutt": "9999-12-31"
        },
        {
          "type": "A290",
          "bruker": "9900IVST",
          "knytningStart": "2020-02-19",
          "knytningSlutt": "9999-12-31"
        },
        {
          "type": "A290",
          "bruker": "9900LABA",
          "knytningStart": "2020-02-19",
          "knytningSlutt": "9999-12-31"
        },
        {
          "type": "A290",
          "bruker": "9900TESK",
          "knytningStart": "2020-02-19",
          "knytningSlutt": "9999-12-31"
        },
        {
          "type": "A290",
          "bruker": "9900LILLOS",
          "knytningStart": "2020-01-01",
          "knytningSlutt": "9999-12-31"
        },
        {
          "type": "A290",
          "bruker": "9900KARIEL",
          "knytningStart": "2020-01-01",
          "knytningSlutt": "9999-12-31"
        },
        {
          "type": "A290",
          "bruker": "9900APOLJ",
          "knytningStart": "2020-05-26",
          "knytningSlutt": "9999-12-31"
        }
      ],
      "overordnOrgenhetId": 10000003
    },
    {
      "id": 10000021,
      "orgKortnavn": 12200000,
      "organisasjonsnavn": "Matematisk institutt",
      "leder": [
        null
      ],
      "pdo": "TROM",
      "type": "88",
      "orgKostnadssted": "0012200000",
      "autWf": [
        {
          "type": "AZWF",
          "bruker": "9900INGANT",
          "knytningStart": "2020-09-01",
          "knytningSlutt": "9999-12-31"
        },
        {
          "type": "AZWF",
          "bruker": "9900INGEIN",
          "knytningStart": "2020-09-01",
          "knytningSlutt": "9999-12-31"
        }
      ],
      "overordnOrgenhetId": 10000020
    },
    {
      "id": 10000021,
      "orgKortnavn": 12200000,
      "organisasjonsnavn": "Matematisk institutt",
      "leder": [
        null
      ],
      "pdo": "TROM",
      "type": null,
      "orgKostnadssted": "0012200000",
      "autWf": [
        {
          "type": "AZWF",
          "bruker": "9900INGANT",
          "knytningStart": "2020-09-01",
          "knytningSlutt": "9999-12-31"
        },
        {
          "type": "AZWF",
          "bruker": "9900INGEIN",
          "knytningStart": "2020-09-01",
          "knytningSlutt": "9999-12-31"
        }
      ],
      "overordnOrgenhetId": 10000020
    },
    {
      "id": 10000021,
      "orgKortnavn": 12200000,
      "organisasjonsnavn": "Matematisk institutt",
      "leder": [
        null
      ],
      "pdo": "TROM",
      "type": "88",
      "orgKostnadssted": "0012200000",
      "autWf": [
        {
          "type": "AZWF",
          "bruker": "9900INGANT",
          "knytningStart": "2020-09-01",
          "knytningSlutt": "9999-12-31"
        },
        {
          "type": "AZWF",
          "bruker": "9900INGEIN",
          "knytningStart": "2020-09-01",
          "knytningSlutt": "9999-12-31"
        }
      ],
      "overordnOrgenhetId": 10000020
    },
    {
      "id": 10000022,
      "orgKortnavn": 12400000,
      "organisasjonsnavn": "Institutt for informatikk",
      "leder": [
        null
      ],
      "pdo": "TROM",
      "type": null,
      "orgKostnadssted": "0012400000",
      "autWf": [
        {
          "type": "AZWF",
          "bruker": "9900INGEIN",
          "knytningStart": "2020-09-01",
          "knytningSlutt": "9999-12-31"
        }
      ],
      "overordnOrgenhetId": 10000020
    },
    {
      "id": 10000023,
      "orgKortnavn": 12600000,
      "organisasjonsnavn": "Institutt for geovitenskap",
      "leder": [
        null
      ],
      "pdo": "TROM",
      "type": "88",
      "orgKostnadssted": "0012600000",
      "autWf": [
        {
          "type": "AZWF",
          "bruker": "9900INGEIN",
          "knytningStart": "2020-09-01",
          "knytningSlutt": "9999-12-31"
        }
      ],
      "overordnOrgenhetId": 10000020
    },
    {
      "id": 10000023,
      "orgKortnavn": 12600000,
      "organisasjonsnavn": "Institutt for geovitenskap",
      "leder": [
        null
      ],
      "pdo": "TROM",
      "type": null,
      "orgKostnadssted": "0012600000",
      "autWf": [
        {
          "type": "AZWF",
          "bruker": "9900INGEIN",
          "knytningStart": "2020-09-01",
          "knytningSlutt": "9999-12-31"
        }
      ],
      "overordnOrgenhetId": 10000020
    },
    {
      "id": 10000023,
      "orgKortnavn": 12600000,
      "organisasjonsnavn": "Institutt for geovitenskap",
      "leder": [
        null
      ],
      "pdo": "TROM",
      "type": "88",
      "orgKostnadssted": "0012600000",
      "autWf": [
        {
          "type": "AZWF",
          "bruker": "9900INGEIN",
          "knytningStart": "2020-09-01",
          "knytningSlutt": "9999-12-31"
        }
      ],
      "overordnOrgenhetId": 10000020
    },
    {
      "id": 10000023,
      "orgKortnavn": 12600000,
      "organisasjonsnavn": "Institutt for geovitenskap",
      "leder": [
        null
      ],
      "pdo": "TROM",
      "type": null,
      "orgKostnadssted": "0012600000",
      "autWf": [
        {
          "type": "AZWF",
          "bruker": "9900INGEIN",
          "knytningStart": "2020-09-01",
          "knytningSlutt": "9999-12-31"
        }
      ],
      "overordnOrgenhetId": 10000020
    },
    {
      "id": 10000024,
      "orgKortnavn": 12800000,
      "organisasjonsnavn": "Testinstitutt",
      "leder": [
        null
      ],
      "pdo": "TROM",
      "type": null,
      "orgKostnadssted": "0012800000",
      "autWf": [
        {
          "type": "AZWF",
          "bruker": "9900INGANT",
          "knytningStart": "2020-09-01",
          "knytningSlutt": "9999-12-31"
        },
        {
          "type": "AZWF",
          "bruker": "9900INGEIN",
          "knytningStart": "2020-09-01",
          "knytningSlutt": "9999-12-31"
        }
      ],
      "overordnOrgenhetId": 10000020
    },
    {
      "id": 10000024,
      "orgKortnavn": 12800000,
      "organisasjonsnavn": "Testinstitutt",
      "leder": [
        null
      ],
      "pdo": "TROM",
      "type": "88",
      "orgKostnadssted": "0012800000",
      "autWf": [
        {
          "type": "AZWF",
          "bruker": "9900INGANT",
          "knytningStart": "2020-09-01",
          "knytningSlutt": "9999-12-31"
        },
        {
          "type": "AZWF",
          "bruker": "9900INGEIN",
          "knytningStart": "2020-09-01",
          "knytningSlutt": "9999-12-31"
        }
      ],
      "overordnOrgenhetId": 10000020
    },
    {
      "id": 10000025,
      "orgKortnavn": 12201000,
      "organisasjonsnavn": "Seksjon for moderne matematikk",
      "leder": [
        null
      ],
      "pdo": "TROM",
      "type": null,
      "orgKostnadssted": "0012201000",
      "autWf": [
        {
          "type": "A290",
          "bruker": "9900KIMAAN",
          "knytningStart": "2020-03-26",
          "knytningSlutt": "9999-12-31"
        },
        {
          "type": "AZWF",
          "bruker": "9900KIMAAN",
          "knytningStart": "2020-03-26",
          "knytningSlutt": "9999-12-31"
        },
        {
          "type": "A290",
          "bruker": "9900PAUSKJ",
          "knytningStart": "2020-03-26",
          "knytningSlutt": "9999-12-31"
        },
        {
          "type": "AZWF",
          "bruker": "9900PAUSKJ",
          "knytningStart": "2020-03-26",
          "knytningSlutt": "9999-12-31"
        }
      ],
      "overordnOrgenhetId": 10000021
    },
    {
      "id": 10000026,
      "orgKortnavn": 12201010,
      "organisasjonsnavn": "Faggruppe astro",
      "leder": [
        null
      ],
      "pdo": "TROM",
      "type": null,
      "orgKostnadssted": "00122010109900",
      "autWf": [
        null
      ],
      "overordnOrgenhetId": 10000025
    },
    {
      "id": 10000034,
      "orgKortnavn": 13000000,
      "organisasjonsnavn": "NTNU – fakultet for medisin og helsevite",
      "leder": [
        {
          "lederAnsattnr": "00101125",
          "lederBrukerident": "GRYSEL"
        }
      ],
      "pdo": "TROM",
      "type": "88",
      "orgKostnadssted": "0013000000",
      "autWf": [
        {
          "type": "A290",
          "bruker": "9900LADR",
          "knytningStart": "2019-10-03",
          "knytningSlutt": "9999-12-31"
        },
        {
          "type": "A290",
          "bruker": "9900MESI",
          "knytningStart": "2019-10-03",
          "knytningSlutt": "9999-12-31"
        },
        {
          "type": "A290",
          "bruker": "9900MOVA",
          "knytningStart": "2020-02-19",
          "knytningSlutt": "9999-12-31"
        },
        {
          "type": "A290",
          "bruker": "9900TOHE",
          "knytningStart": "2020-02-19",
          "knytningSlutt": "9999-12-31"
        },
        {
          "type": "A290",
          "bruker": "9900CHSA",
          "knytningStart": "2020-02-19",
          "knytningSlutt": "9999-12-31"
        },
        {
          "type": "A290",
          "bruker": "9900JANSR",
          "knytningStart": "2020-05-25",
          "knytningSlutt": "9999-12-31"
        },
        {
          "type": "AZWF",
          "bruker": "9900VIBBAK",
          "knytningStart": "2020-06-17",
          "knytningSlutt": "9999-12-31"
        },
        {
          "type": "A290",
          "bruker": "9900VIBBAK",
          "knytningStart": "2020-06-17",
          "knytningSlutt": "9999-12-31"
        },
        {
          "type": "AZWF",
          "bruker": "9900INGEIN",
          "knytningStart": "2020-03-26",
          "knytningSlutt": "9999-12-31"
        },
        {
          "type": "AZWF",
          "bruker": "9900INGANT",
          "knytningStart": "2020-06-01",
          "knytningSlutt": "9999-12-31"
        },
        {
          "type": "A290",
          "bruker": "9900OLJENS",
          "knytningStart": "2020-01-01",
          "knytningSlutt": "9999-12-31"
        },
        {
          "type": "A290",
          "bruker": "9900RANHEN",
          "knytningStart": "2020-03-26",
          "knytningSlutt": "9999-12-31"
        },
        {
          "type": "AZWF",
          "bruker": "9900RANHEN",
          "knytningStart": "2020-03-26",
          "knytningSlutt": "9999-12-31"
        },
        {
          "type": "A290",
          "bruker": "9900MAGU",
          "knytningStart": "2020-03-26",
          "knytningSlutt": "9999-12-31"
        },
        {
          "type": "AZWF",
          "bruker": "9900MAGU",
          "knytningStart": "2020-03-26",
          "knytningSlutt": "9999-12-31"
        }
      ],
      "overordnOrgenhetId": 10000003
    },
    {
      "id": 10000034,
      "orgKortnavn": 13000000,
      "organisasjonsnavn": "NTNU – fakultet for medisin og helsevite",
      "leder": [
        {
          "lederAnsattnr": "00101125",
          "lederBrukerident": "GRYSEL"
        }
      ],
      "pdo": "TROM",
      "type": null,
      "orgKostnadssted": "0013000000",
      "autWf": [
        {
          "type": "A290",
          "bruker": "9900LADR",
          "knytningStart": "2019-10-03",
          "knytningSlutt": "9999-12-31"
        },
        {
          "type": "A290",
          "bruker": "9900MESI",
          "knytningStart": "2019-10-03",
          "knytningSlutt": "9999-12-31"
        },
        {
          "type": "A290",
          "bruker": "9900MOVA",
          "knytningStart": "2020-02-19",
          "knytningSlutt": "9999-12-31"
        },
        {
          "type": "A290",
          "bruker": "9900TOHE",
          "knytningStart": "2020-02-19",
          "knytningSlutt": "9999-12-31"
        },
        {
          "type": "A290",
          "bruker": "9900CHSA",
          "knytningStart": "2020-02-19",
          "knytningSlutt": "9999-12-31"
        },
        {
          "type": "A290",
          "bruker": "9900JANSR",
          "knytningStart": "2020-05-25",
          "knytningSlutt": "9999-12-31"
        },
        {
          "type": "AZWF",
          "bruker": "9900VIBBAK",
          "knytningStart": "2020-06-17",
          "knytningSlutt": "9999-12-31"
        },
        {
          "type": "A290",
          "bruker": "9900VIBBAK",
          "knytningStart": "2020-06-17",
          "knytningSlutt": "9999-12-31"
        },
        {
          "type": "AZWF",
          "bruker": "9900INGEIN",
          "knytningStart": "2020-03-26",
          "knytningSlutt": "9999-12-31"
        },
        {
          "type": "AZWF",
          "bruker": "9900INGANT",
          "knytningStart": "2020-06-01",
          "knytningSlutt": "9999-12-31"
        },
        {
          "type": "A290",
          "bruker": "9900OLJENS",
          "knytningStart": "2020-01-01",
          "knytningSlutt": "9999-12-31"
        },
        {
          "type": "A290",
          "bruker": "9900RANHEN",
          "knytningStart": "2020-03-26",
          "knytningSlutt": "9999-12-31"
        },
        {
          "type": "AZWF",
          "bruker": "9900RANHEN",
          "knytningStart": "2020-03-26",
          "knytningSlutt": "9999-12-31"
        },
        {
          "type": "A290",
          "bruker": "9900MAGU",
          "knytningStart": "2020-03-26",
          "knytningSlutt": "9999-12-31"
        },
        {
          "type": "AZWF",
          "bruker": "9900MAGU",
          "knytningStart": "2020-03-26",
          "knytningSlutt": "9999-12-31"
        }
      ],
      "overordnOrgenhetId": 10000003
    },
    {
      "id": 10000034,
      "orgKortnavn": 13000000,
      "organisasjonsnavn": "NTNU – fakultet for medisin og helsevite",
      "leder": [
        {
          "lederAnsattnr": "00101125",
          "lederBrukerident": "GRYSEL"
        }
      ],
      "pdo": "TROM",
      "type": "88",
      "orgKostnadssted": "0013000000",
      "autWf": [
        {
          "type": "A290",
          "bruker": "9900LADR",
          "knytningStart": "2019-10-03",
          "knytningSlutt": "9999-12-31"
        },
        {
          "type": "A290",
          "bruker": "9900MESI",
          "knytningStart": "2019-10-03",
          "knytningSlutt": "9999-12-31"
        },
        {
          "type": "A290",
          "bruker": "9900MOVA",
          "knytningStart": "2020-02-19",
          "knytningSlutt": "9999-12-31"
        },
        {
          "type": "A290",
          "bruker": "9900TOHE",
          "knytningStart": "2020-02-19",
          "knytningSlutt": "9999-12-31"
        },
        {
          "type": "A290",
          "bruker": "9900CHSA",
          "knytningStart": "2020-02-19",
          "knytningSlutt": "9999-12-31"
        },
        {
          "type": "A290",
          "bruker": "9900JANSR",
          "knytningStart": "2020-05-25",
          "knytningSlutt": "9999-12-31"
        },
        {
          "type": "AZWF",
          "bruker": "9900VIBBAK",
          "knytningStart": "2020-06-17",
          "knytningSlutt": "9999-12-31"
        },
        {
          "type": "A290",
          "bruker": "9900VIBBAK",
          "knytningStart": "2020-06-17",
          "knytningSlutt": "9999-12-31"
        },
        {
          "type": "AZWF",
          "bruker": "9900INGEIN",
          "knytningStart": "2020-03-26",
          "knytningSlutt": "9999-12-31"
        },
        {
          "type": "AZWF",
          "bruker": "9900INGANT",
          "knytningStart": "2020-06-01",
          "knytningSlutt": "9999-12-31"
        },
        {
          "type": "A290",
          "bruker": "9900OLJENS",
          "knytningStart": "2020-01-01",
          "knytningSlutt": "9999-12-31"
        },
        {
          "type": "A290",
          "bruker": "9900RANHEN",
          "knytningStart": "2020-03-26",
          "knytningSlutt": "9999-12-31"
        },
        {
          "type": "AZWF",
          "bruker": "9900RANHEN",
          "knytningStart": "2020-03-26",
          "knytningSlutt": "9999-12-31"
        },
        {
          "type": "A290",
          "bruker": "9900MAGU",
          "knytningStart": "2020-03-26",
          "knytningSlutt": "9999-12-31"
        },
        {
          "type": "AZWF",
          "bruker": "9900MAGU",
          "knytningStart": "2020-03-26",
          "knytningSlutt": "9999-12-31"
        }
      ],
      "overordnOrgenhetId": 10000003
    },
    {
      "id": 10000036,
      "orgKortnavn": 13200000,
      "organisasjonsnavn": "Institutt for helsevitenskap Gjøvik",
      "leder": [
        {
          "lederAnsattnr": "00101126",
          "lederBrukerident": "BENAAS"
        },
        {
          "lederAnsattnr": "00101127",
          "lederBrukerident": "JONRUS"
        },
        {
          "lederAnsattnr": "00101287"
        }
      ],
      "pdo": "TROM",
      "type": "88",
      "orgKostnadssted": "0013200000",
      "autWf": [
        null
      ],
      "overordnOrgenhetId": 10000034
    },
    {
      "id": 10000036,
      "orgKortnavn": 13200000,
      "organisasjonsnavn": "Institutt for helsevitenskap Gjøvik",
      "leder": [
        {
          "lederAnsattnr": "00101126",
          "lederBrukerident": "BENAAS"
        },
        {
          "lederAnsattnr": "00101127",
          "lederBrukerident": "JONRUS"
        },
        {
          "lederAnsattnr": "00101287"
        }
      ],
      "pdo": "TROM",
      "type": null,
      "orgKostnadssted": "0013200000",
      "autWf": [
        null
      ],
      "overordnOrgenhetId": 10000034
    },
    {
      "id": 10000036,
      "orgKortnavn": 13200000,
      "organisasjonsnavn": "Institutt for helsevitenskap Gjøvik",
      "leder": [
        {
          "lederAnsattnr": "00101126",
          "lederBrukerident": "BENAAS"
        },
        {
          "lederAnsattnr": "00101127",
          "lederBrukerident": "JONRUS"
        },
        {
          "lederAnsattnr": "00101287"
        }
      ],
      "pdo": "TROM",
      "type": "88",
      "orgKostnadssted": "0013200000",
      "autWf": [
        null
      ],
      "overordnOrgenhetId": 10000034
    },
    {
      "id": 10000037,
      "orgKortnavn": 13400000,
      "organisasjonsnavn": "Institutt for helsevitenskap Ålesund​",
      "leder": [
        {
          "lederAnsattnr": "00101129",
          "lederBrukerident": "KENNYB"
        }
      ],
      "pdo": "TROM",
      "type": "88",
      "orgKostnadssted": "0013400000",
      "autWf": [
        null
      ],
      "overordnOrgenhetId": 10000034
    },
    {
      "id": 10000037,
      "orgKortnavn": 13400000,
      "organisasjonsnavn": "Institutt for helsevitenskap Ålesund​",
      "leder": [
        {
          "lederAnsattnr": "00101129",
          "lederBrukerident": "KENNYB"
        }
      ],
      "pdo": "TROM",
      "type": null,
      "orgKostnadssted": "0013400000",
      "autWf": [
        null
      ],
      "overordnOrgenhetId": 10000034
    },
    {
      "id": 10000038,
      "orgKortnavn": 13600000,
      "organisasjonsnavn": "Institutt for nevromedisin og bevegelse​",
      "leder": [
        {
          "lederAnsattnr": "00101136",
          "lederBrukerident": "JOHJUL"
        }
      ],
      "pdo": "TROM",
      "type": null,
      "orgKostnadssted": "0013600000",
      "autWf": [
        {
          "type": "A290",
          "bruker": "9900JOHJUL",
          "knytningStart": "2020-04-29",
          "knytningSlutt": "9999-12-31"
        },
        {
          "type": "AZWF",
          "bruker": "9900JOHJUL",
          "knytningStart": "2020-04-29",
          "knytningSlutt": "9999-12-31"
        },
        {
          "type": "AZWF",
          "bruker": "9900INGANT",
          "knytningStart": "2020-05-01",
          "knytningSlutt": "9999-12-31"
        }
      ],
      "overordnOrgenhetId": 10000034
    },
    {
      "id": 10000039,
      "orgKortnavn": 13400010,
      "organisasjonsnavn": "Leiested Ålesund",
      "leder": [
        null
      ],
      "pdo": "TROM",
      "type": "88",
      "orgKostnadssted": "0013400010",
      "autWf": [
        {
          "type": "AZWF",
          "bruker": "9900INGANT",
          "knytningStart": "2020-09-01",
          "knytningSlutt": "9999-12-31"
        },
        {
          "type": "AZWF",
          "bruker": "9900INGEIN",
          "knytningStart": "2020-09-01",
          "knytningSlutt": "9999-12-31"
        }
      ],
      "overordnOrgenhetId": 10000037
    },
    {
      "id": 10000040,
      "orgKortnavn": 13601000,
      "organisasjonsnavn": "Seksjon for bevegelse",
      "leder": [
        {
          "lederAnsattnr": "00101138",
          "lederBrukerident": "GEIKVE"
        }
      ],
      "pdo": "TROM",
      "type": null,
      "orgKostnadssted": "0013601000",
      "autWf": [
        null
      ],
      "overordnOrgenhetId": 10000038
    },
    {
      "id": 10000041,
      "orgKortnavn": 13601020,
      "organisasjonsnavn": "Senter for toppidretts-forskning​",
      "leder": [
        {
          "lederAnsattnr": "00101144",
          "lederBrukerident": "AKSALM"
        }
      ],
      "pdo": "TROM",
      "type": "88",
      "orgKostnadssted": "0013601020",
      "autWf": [
        {
          "type": "A290",
          "bruker": "9900AKSALM",
          "knytningStart": "2020-04-29",
          "knytningSlutt": "9999-12-31"
        },
        {
          "type": "AZWF",
          "bruker": "9900AKSALM",
          "knytningStart": "2020-04-29",
          "knytningSlutt": "9999-12-31"
        }
      ],
      "overordnOrgenhetId": 10000038
    },
    {
      "id": 10000041,
      "orgKortnavn": 13601020,
      "organisasjonsnavn": "Senter for toppidretts-forskning​",
      "leder": [
        {
          "lederAnsattnr": "00101144",
          "lederBrukerident": "AKSALM"
        }
      ],
      "pdo": "TROM",
      "type": null,
      "orgKostnadssted": "0013601020",
      "autWf": [
        {
          "type": "A290",
          "bruker": "9900AKSALM",
          "knytningStart": "2020-04-29",
          "knytningSlutt": "9999-12-31"
        },
        {
          "type": "AZWF",
          "bruker": "9900AKSALM",
          "knytningStart": "2020-04-29",
          "knytningSlutt": "9999-12-31"
        }
      ],
      "overordnOrgenhetId": 10000038
    },
    {
      "id": 10000042,
      "orgKortnavn": 13601010,
      "organisasjonsnavn": "Faggruppe nevrobiologi",
      "leder": [
        null
      ],
      "pdo": "TROM",
      "type": null,
      "orgKostnadssted": "0013601020",
      "autWf": [
        null
      ],
      "overordnOrgenhetId": 10000040
    },
    {
      "id": 10000043,
      "orgKortnavn": 14000000,
      "organisasjonsnavn": "UiO –fakultetet",
      "leder": [
        {
          "lederAnsattnr": "00101215",
          "lederBrukerident": "THOFAA"
        }
      ],
      "pdo": "TROM",
      "type": "88",
      "orgKostnadssted": "0014000000",
      "autWf": [
        {
          "type": "A290",
          "bruker": "9900BTFTROLL",
          "knytningStart": "2020-02-19",
          "knytningSlutt": "9999-12-31"
        },
        {
          "type": "A290",
          "bruker": "9900JATH",
          "knytningStart": "2019-10-03",
          "knytningSlutt": "9999-12-31"
        },
        {
          "type": "A290",
          "bruker": "9900CHBR",
          "knytningStart": "2019-10-03",
          "knytningSlutt": "9999-12-31"
        },
        {
          "type": "A290",
          "bruker": "9900KABE",
          "knytningStart": "2019-10-03",
          "knytningSlutt": "9999-12-31"
        },
        {
          "type": "A290",
          "bruker": "9900BJHA",
          "knytningStart": "2019-10-03",
          "knytningSlutt": "9999-12-31"
        },
        {
          "type": "A290",
          "bruker": "9900MARTHEBM",
          "knytningStart": "2020-02-19",
          "knytningSlutt": "9999-12-31"
        },
        {
          "type": "A290",
          "bruker": "9900TONEMRUD",
          "knytningStart": "2020-02-19",
          "knytningSlutt": "9999-12-31"
        },
        {
          "type": "A290",
          "bruker": "9900JANRYK",
          "knytningStart": "2020-02-19",
          "knytningSlutt": "9999-12-31"
        },
        {
          "type": "A290",
          "bruker": "9900LINEDO",
          "knytningStart": "2020-02-19",
          "knytningSlutt": "9999-12-31"
        },
        {
          "type": "A290",
          "bruker": "9900LARSSOLH",
          "knytningStart": "2020-02-19",
          "knytningSlutt": "9999-12-31"
        },
        {
          "type": "A290",
          "bruker": "9900KARFEM",
          "knytningStart": "2020-01-01",
          "knytningSlutt": "9999-12-31"
        },
        {
          "type": "A290",
          "bruker": "9900TORWIC",
          "knytningStart": "2020-01-01",
          "knytningSlutt": "9999-12-31"
        },
        {
          "type": "A290",
          "bruker": "9900KJEBYG",
          "knytningStart": "2020-03-26",
          "knytningSlutt": "9999-12-31"
        },
        {
          "type": "AZWF",
          "bruker": "9900KJEBYG",
          "knytningStart": "2020-03-26",
          "knytningSlutt": "9999-12-31"
        },
        {
          "type": "A290",
          "bruker": "9900SVEINA",
          "knytningStart": "2020-03-26",
          "knytningSlutt": "9999-12-31"
        },
        {
          "type": "AZWF",
          "bruker": "9900SVEINA",
          "knytningStart": "2020-03-26",
          "knytningSlutt": "9999-12-31"
        },
        {
          "type": "A290",
          "bruker": "9900SUGUMARS",
          "knytningStart": "2020-09-18",
          "knytningSlutt": "9999-12-31"
        },
        {
          "type": "A290",
          "bruker": "9900PEIKPF",
          "knytningStart": "2020-09-18",
          "knytningSlutt": "9999-12-31"
        },
        {
          "type": "A290",
          "bruker": "9900ANDRENHA",
          "knytningStart": "2020-09-18",
          "knytningSlutt": "9999-12-31"
        },
        {
          "type": "A290",
          "bruker": "9900OLJENS",
          "knytningStart": "2020-09-16",
          "knytningSlutt": "9999-12-31"
        },
        {
          "type": "A290",
          "bruker": "9900RAGNHSTV",
          "knytningStart": "2020-10-01",
          "knytningSlutt": "9999-12-31"
        }
      ],
      "overordnOrgenhetId": 10000003
    },
    {
      "id": 10000043,
      "orgKortnavn": 14000000,
      "organisasjonsnavn": "UiO –fakultetet",
      "leder": [
        {
          "lederAnsattnr": "00101215",
          "lederBrukerident": "THOFAA"
        }
      ],
      "pdo": "TROM",
      "type": null,
      "orgKostnadssted": "0014000000",
      "autWf": [
        {
          "type": "A290",
          "bruker": "9900BTFTROLL",
          "knytningStart": "2020-02-19",
          "knytningSlutt": "9999-12-31"
        },
        {
          "type": "A290",
          "bruker": "9900JATH",
          "knytningStart": "2019-10-03",
          "knytningSlutt": "9999-12-31"
        },
        {
          "type": "A290",
          "bruker": "9900CHBR",
          "knytningStart": "2019-10-03",
          "knytningSlutt": "9999-12-31"
        },
        {
          "type": "A290",
          "bruker": "9900KABE",
          "knytningStart": "2019-10-03",
          "knytningSlutt": "9999-12-31"
        },
        {
          "type": "A290",
          "bruker": "9900BJHA",
          "knytningStart": "2019-10-03",
          "knytningSlutt": "9999-12-31"
        },
        {
          "type": "A290",
          "bruker": "9900MARTHEBM",
          "knytningStart": "2020-02-19",
          "knytningSlutt": "9999-12-31"
        },
        {
          "type": "A290",
          "bruker": "9900TONEMRUD",
          "knytningStart": "2020-02-19",
          "knytningSlutt": "9999-12-31"
        },
        {
          "type": "A290",
          "bruker": "9900JANRYK",
          "knytningStart": "2020-02-19",
          "knytningSlutt": "9999-12-31"
        },
        {
          "type": "A290",
          "bruker": "9900LINEDO",
          "knytningStart": "2020-02-19",
          "knytningSlutt": "9999-12-31"
        },
        {
          "type": "A290",
          "bruker": "9900LARSSOLH",
          "knytningStart": "2020-02-19",
          "knytningSlutt": "9999-12-31"
        },
        {
          "type": "A290",
          "bruker": "9900KARFEM",
          "knytningStart": "2020-01-01",
          "knytningSlutt": "9999-12-31"
        },
        {
          "type": "A290",
          "bruker": "9900TORWIC",
          "knytningStart": "2020-01-01",
          "knytningSlutt": "9999-12-31"
        },
        {
          "type": "A290",
          "bruker": "9900KJEBYG",
          "knytningStart": "2020-03-26",
          "knytningSlutt": "9999-12-31"
        },
        {
          "type": "AZWF",
          "bruker": "9900KJEBYG",
          "knytningStart": "2020-03-26",
          "knytningSlutt": "9999-12-31"
        },
        {
          "type": "A290",
          "bruker": "9900SVEINA",
          "knytningStart": "2020-03-26",
          "knytningSlutt": "9999-12-31"
        },
        {
          "type": "AZWF",
          "bruker": "9900SVEINA",
          "knytningStart": "2020-03-26",
          "knytningSlutt": "9999-12-31"
        },
        {
          "type": "A290",
          "bruker": "9900SUGUMARS",
          "knytningStart": "2020-09-18",
          "knytningSlutt": "9999-12-31"
        },
        {
          "type": "A290",
          "bruker": "9900PEIKPF",
          "knytningStart": "2020-09-18",
          "knytningSlutt": "9999-12-31"
        },
        {
          "type": "A290",
          "bruker": "9900ANDRENHA",
          "knytningStart": "2020-09-18",
          "knytningSlutt": "9999-12-31"
        },
        {
          "type": "A290",
          "bruker": "9900OLJENS",
          "knytningStart": "2020-09-16",
          "knytningSlutt": "9999-12-31"
        },
        {
          "type": "A290",
          "bruker": "9900RAGNHSTV",
          "knytningStart": "2020-10-01",
          "knytningSlutt": "9999-12-31"
        }
      ],
      "overordnOrgenhetId": 10000003
    },
    {
      "id": 10000043,
      "orgKortnavn": 14000000,
      "organisasjonsnavn": "UiO –fakultetet",
      "leder": [
        {
          "lederAnsattnr": "00101215",
          "lederBrukerident": "THOFAA"
        }
      ],
      "pdo": "TROM",
      "type": "88",
      "orgKostnadssted": "0014000000",
      "autWf": [
        {
          "type": "A290",
          "bruker": "9900BTFTROLL",
          "knytningStart": "2020-02-19",
          "knytningSlutt": "9999-12-31"
        },
        {
          "type": "A290",
          "bruker": "9900JATH",
          "knytningStart": "2019-10-03",
          "knytningSlutt": "9999-12-31"
        },
        {
          "type": "A290",
          "bruker": "9900CHBR",
          "knytningStart": "2019-10-03",
          "knytningSlutt": "9999-12-31"
        },
        {
          "type": "A290",
          "bruker": "9900KABE",
          "knytningStart": "2019-10-03",
          "knytningSlutt": "9999-12-31"
        },
        {
          "type": "A290",
          "bruker": "9900BJHA",
          "knytningStart": "2019-10-03",
          "knytningSlutt": "9999-12-31"
        },
        {
          "type": "A290",
          "bruker": "9900MARTHEBM",
          "knytningStart": "2020-02-19",
          "knytningSlutt": "9999-12-31"
        },
        {
          "type": "A290",
          "bruker": "9900TONEMRUD",
          "knytningStart": "2020-02-19",
          "knytningSlutt": "9999-12-31"
        },
        {
          "type": "A290",
          "bruker": "9900JANRYK",
          "knytningStart": "2020-02-19",
          "knytningSlutt": "9999-12-31"
        },
        {
          "type": "A290",
          "bruker": "9900LINEDO",
          "knytningStart": "2020-02-19",
          "knytningSlutt": "9999-12-31"
        },
        {
          "type": "A290",
          "bruker": "9900LARSSOLH",
          "knytningStart": "2020-02-19",
          "knytningSlutt": "9999-12-31"
        },
        {
          "type": "A290",
          "bruker": "9900KARFEM",
          "knytningStart": "2020-01-01",
          "knytningSlutt": "9999-12-31"
        },
        {
          "type": "A290",
          "bruker": "9900TORWIC",
          "knytningStart": "2020-01-01",
          "knytningSlutt": "9999-12-31"
        },
        {
          "type": "A290",
          "bruker": "9900KJEBYG",
          "knytningStart": "2020-03-26",
          "knytningSlutt": "9999-12-31"
        },
        {
          "type": "AZWF",
          "bruker": "9900KJEBYG",
          "knytningStart": "2020-03-26",
          "knytningSlutt": "9999-12-31"
        },
        {
          "type": "A290",
          "bruker": "9900SVEINA",
          "knytningStart": "2020-03-26",
          "knytningSlutt": "9999-12-31"
        },
        {
          "type": "AZWF",
          "bruker": "9900SVEINA",
          "knytningStart": "2020-03-26",
          "knytningSlutt": "9999-12-31"
        },
        {
          "type": "A290",
          "bruker": "9900SUGUMARS",
          "knytningStart": "2020-09-18",
          "knytningSlutt": "9999-12-31"
        },
        {
          "type": "A290",
          "bruker": "9900PEIKPF",
          "knytningStart": "2020-09-18",
          "knytningSlutt": "9999-12-31"
        },
        {
          "type": "A290",
          "bruker": "9900ANDRENHA",
          "knytningStart": "2020-09-18",
          "knytningSlutt": "9999-12-31"
        },
        {
          "type": "A290",
          "bruker": "9900OLJENS",
          "knytningStart": "2020-09-16",
          "knytningSlutt": "9999-12-31"
        },
        {
          "type": "A290",
          "bruker": "9900RAGNHSTV",
          "knytningStart": "2020-10-01",
          "knytningSlutt": "9999-12-31"
        }
      ],
      "overordnOrgenhetId": 10000003
    },
    {
      "id": 10000044,
      "orgKortnavn": 14100000,
      "organisasjonsnavn": "Avdeling LOS",
      "leder": [
        {
          "lederAnsattnr": "00101150",
          "lederBrukerident": "TOKROG"
        },
        {
          "lederAnsattnr": "00101151",
          "lederBrukerident": "ERLSEI"
        }
      ],
      "pdo": "TROM",
      "type": "88",
      "orgKostnadssted": "0014100000",
      "autWf": [
        null
      ],
      "overordnOrgenhetId": 10000043
    },
    {
      "id": 10000044,
      "orgKortnavn": 14100000,
      "organisasjonsnavn": "Avdeling LOS",
      "leder": [
        {
          "lederAnsattnr": "00101150",
          "lederBrukerident": "TOKROG"
        },
        {
          "lederAnsattnr": "00101151",
          "lederBrukerident": "ERLSEI"
        }
      ],
      "pdo": "TROM",
      "type": null,
      "orgKostnadssted": "0014100000",
      "autWf": [
        null
      ],
      "overordnOrgenhetId": 10000043
    },
    {
      "id": 10000045,
      "orgKortnavn": 14101000,
      "organisasjonsnavn": "Seksjon for regnskap",
      "leder": [
        {
          "lederAnsattnr": "00101216",
          "lederBrukerident": "ROASKJ"
        }
      ],
      "pdo": "TROM",
      "type": "88",
      "orgKostnadssted": "0014101000",
      "autWf": [
        null
      ],
      "overordnOrgenhetId": 10000044
    },
    {
      "id": 10000046,
      "orgKortnavn": 14102000,
      "organisasjonsnavn": "Seksjon for lønn",
      "leder": [
        {
          "lederAnsattnr": "00101155",
          "lederBrukerident": "YNGHER"
        }
      ],
      "pdo": "TROM",
      "type": null,
      "orgKostnadssted": "0014102000",
      "autWf": [
        null
      ],
      "overordnOrgenhetId": 10000044
    },
    {
      "id": 10000046,
      "orgKortnavn": 14102000,
      "organisasjonsnavn": "Seksjon for lønn",
      "leder": [
        {
          "lederAnsattnr": "00101155",
          "lederBrukerident": "YNGHER"
        }
      ],
      "pdo": "TROM",
      "type": "88",
      "orgKostnadssted": "0014102000",
      "autWf": [
        null
      ],
      "overordnOrgenhetId": 10000044
    },
    {
      "id": 10000047,
      "orgKortnavn": 14102010,
      "organisasjonsnavn": "Faggruppe reiser",
      "leder": [
        null
      ],
      "pdo": "TROM",
      "type": null,
      "orgKostnadssted": "0014102010",
      "autWf": [
        null
      ],
      "overordnOrgenhetId": 10000046
    },
    {
      "id": 10000048,
      "orgKortnavn": 14200000,
      "organisasjonsnavn": "Institutt med. Basalfag",
      "leder": [
        {
          "lederAnsattnr": "00101157",
          "lederBrukerident": "LIGULL"
        },
        {
          "lederAnsattnr": "00101178",
          "lederBrukerident": "CATSVI"
        },
        {
          "lederAnsattnr": "00101207",
          "lederBrukerident": "EISTEI"
        },
        {
          "lederAnsattnr": "00102056"
        },
        {
          "lederAnsattnr": "00102084"
        }
      ],
      "pdo": "TROM",
      "type": "88",
      "orgKostnadssted": "0014200000",
      "autWf": [
        null
      ],
      "overordnOrgenhetId": 10000043
    },
    {
      "id": 10000048,
      "orgKortnavn": 14200000,
      "organisasjonsnavn": "Institutt med. Basalfag",
      "leder": [
        {
          "lederAnsattnr": "00101157",
          "lederBrukerident": "LIGULL"
        },
        {
          "lederAnsattnr": "00101178",
          "lederBrukerident": "CATSVI"
        },
        {
          "lederAnsattnr": "00101207",
          "lederBrukerident": "EISTEI"
        },
        {
          "lederAnsattnr": "00102056"
        },
        {
          "lederAnsattnr": "00102084"
        }
      ],
      "pdo": "TROM",
      "type": null,
      "orgKostnadssted": "0014200000",
      "autWf": [
        null
      ],
      "overordnOrgenhetId": 10000043
    },
    {
      "id": 10000048,
      "orgKortnavn": 14200000,
      "organisasjonsnavn": "Institutt med. Basalfag",
      "leder": [
        {
          "lederAnsattnr": "00101157",
          "lederBrukerident": "LIGULL"
        },
        {
          "lederAnsattnr": "00101178",
          "lederBrukerident": "CATSVI"
        },
        {
          "lederAnsattnr": "00101207",
          "lederBrukerident": "EISTEI"
        },
        {
          "lederAnsattnr": "00102056"
        },
        {
          "lederAnsattnr": "00102084"
        }
      ],
      "pdo": "TROM",
      "type": "88",
      "orgKostnadssted": "0014200000",
      "autWf": [
        null
      ],
      "overordnOrgenhetId": 10000043
    },
    {
      "id": 10000048,
      "orgKortnavn": 14200000,
      "organisasjonsnavn": "Institutt med. Basalfag",
      "leder": [
        {
          "lederAnsattnr": "00101157",
          "lederBrukerident": "LIGULL"
        },
        {
          "lederAnsattnr": "00101178",
          "lederBrukerident": "CATSVI"
        },
        {
          "lederAnsattnr": "00101207",
          "lederBrukerident": "EISTEI"
        },
        {
          "lederAnsattnr": "00102056"
        },
        {
          "lederAnsattnr": "00102084"
        }
      ],
      "pdo": "TROM",
      "type": null,
      "orgKostnadssted": "0014200000",
      "autWf": [
        null
      ],
      "overordnOrgenhetId": 10000043
    },
    {
      "id": 10000048,
      "orgKortnavn": 14200000,
      "organisasjonsnavn": "Institutt med. Basalfag",
      "leder": [
        {
          "lederAnsattnr": "00101157",
          "lederBrukerident": "LIGULL"
        },
        {
          "lederAnsattnr": "00101178",
          "lederBrukerident": "CATSVI"
        },
        {
          "lederAnsattnr": "00101207",
          "lederBrukerident": "EISTEI"
        },
        {
          "lederAnsattnr": "00102056"
        },
        {
          "lederAnsattnr": "00102084"
        }
      ],
      "pdo": "TROM",
      "type": "88",
      "orgKostnadssted": "0014200000",
      "autWf": [
        null
      ],
      "overordnOrgenhetId": 10000043
    },
    {
      "id": 10000048,
      "orgKortnavn": 14200000,
      "organisasjonsnavn": "Institutt med. Basalfag",
      "leder": [
        {
          "lederAnsattnr": "00101157",
          "lederBrukerident": "LIGULL"
        },
        {
          "lederAnsattnr": "00101178",
          "lederBrukerident": "CATSVI"
        },
        {
          "lederAnsattnr": "00101207",
          "lederBrukerident": "EISTEI"
        },
        {
          "lederAnsattnr": "00102056"
        },
        {
          "lederAnsattnr": "00102084"
        }
      ],
      "pdo": "TROM",
      "type": null,
      "orgKostnadssted": "0014200000",
      "autWf": [
        null
      ],
      "overordnOrgenhetId": 10000043
    },
    {
      "id": 10000048,
      "orgKortnavn": 14200000,
      "organisasjonsnavn": "Institutt med. Basalfag",
      "leder": [
        {
          "lederAnsattnr": "00101157",
          "lederBrukerident": "LIGULL"
        },
        {
          "lederAnsattnr": "00101178",
          "lederBrukerident": "CATSVI"
        },
        {
          "lederAnsattnr": "00101207",
          "lederBrukerident": "EISTEI"
        },
        {
          "lederAnsattnr": "00102056"
        },
        {
          "lederAnsattnr": "00102084"
        }
      ],
      "pdo": "TROM",
      "type": "88",
      "orgKostnadssted": "0014200000",
      "autWf": [
        null
      ],
      "overordnOrgenhetId": 10000043
    },
    {
      "id": 10000049,
      "orgKortnavn": 14400000,
      "organisasjonsnavn": "Brukernære tjenester",
      "leder": [
        {
          "lederAnsattnr": "00101166",
          "lederBrukerident": "HEKONI"
        }
      ],
      "pdo": "TROM",
      "type": "88",
      "orgKostnadssted": "0014400000",
      "autWf": [
        {
          "type": "AZWF",
          "bruker": "9900INGANT",
          "knytningStart": "2020-09-01",
          "knytningSlutt": "9999-12-31"
        },
        {
          "type": "AZWF",
          "bruker": "9900INGEIN",
          "knytningStart": "2020-09-01",
          "knytningSlutt": "9999-12-31"
        }
      ],
      "overordnOrgenhetId": 10000043
    },
    {
      "id": 10000049,
      "orgKortnavn": 14400000,
      "organisasjonsnavn": "Brukernære tjenester",
      "leder": [
        {
          "lederAnsattnr": "00101166",
          "lederBrukerident": "HEKONI"
        }
      ],
      "pdo": "TROM",
      "type": null,
      "orgKostnadssted": "0014400000",
      "autWf": [
        {
          "type": "AZWF",
          "bruker": "9900INGANT",
          "knytningStart": "2020-09-01",
          "knytningSlutt": "9999-12-31"
        },
        {
          "type": "AZWF",
          "bruker": "9900INGEIN",
          "knytningStart": "2020-09-01",
          "knytningSlutt": "9999-12-31"
        }
      ],
      "overordnOrgenhetId": 10000043
    },
    {
      "id": 10000049,
      "orgKortnavn": 14400000,
      "organisasjonsnavn": "Brukernære tjenester",
      "leder": [
        {
          "lederAnsattnr": "00101166",
          "lederBrukerident": "HEKONI"
        }
      ],
      "pdo": "TROM",
      "type": "88",
      "orgKostnadssted": "0014400000",
      "autWf": [
        {
          "type": "AZWF",
          "bruker": "9900INGANT",
          "knytningStart": "2020-09-01",
          "knytningSlutt": "9999-12-31"
        },
        {
          "type": "AZWF",
          "bruker": "9900INGEIN",
          "knytningStart": "2020-09-01",
          "knytningSlutt": "9999-12-31"
        }
      ],
      "overordnOrgenhetId": 10000043
    },
    {
      "id": 10000050,
      "orgKortnavn": 14600000,
      "organisasjonsnavn": "KHM utstilling",
      "leder": [
        {
          "lederAnsattnr": "00101169",
          "lederBrukerident": "LAIORS"
        },
        {
          "lederAnsattnr": "00101171",
          "lederBrukerident": "LISWAT"
        },
        {
          "lederAnsattnr": "00101171",
          "lederBrukerident": "LISWAT"
        }
      ],
      "pdo": "TROM",
      "type": "88",
      "orgKostnadssted": "0014600000",
      "autWf": [
        {
          "type": "AZWF",
          "bruker": "9900INGANT",
          "knytningStart": "2020-09-01",
          "knytningSlutt": "9999-12-31"
        },
        {
          "type": "AZWF",
          "bruker": "9900INGEIN",
          "knytningStart": "2020-09-01",
          "knytningSlutt": "9999-12-31"
        }
      ],
      "overordnOrgenhetId": 10000043
    },
    {
      "id": 10000050,
      "orgKortnavn": 14600000,
      "organisasjonsnavn": "KHM utstilling",
      "leder": [
        {
          "lederAnsattnr": "00101169",
          "lederBrukerident": "LAIORS"
        },
        {
          "lederAnsattnr": "00101171",
          "lederBrukerident": "LISWAT"
        },
        {
          "lederAnsattnr": "00101171",
          "lederBrukerident": "LISWAT"
        }
      ],
      "pdo": "TROM",
      "type": null,
      "orgKostnadssted": "0014600000",
      "autWf": [
        {
          "type": "AZWF",
          "bruker": "9900INGANT",
          "knytningStart": "2020-09-01",
          "knytningSlutt": "9999-12-31"
        },
        {
          "type": "AZWF",
          "bruker": "9900INGEIN",
          "knytningStart": "2020-09-01",
          "knytningSlutt": "9999-12-31"
        }
      ],
      "overordnOrgenhetId": 10000043
    },
    {
      "id": 10000050,
      "orgKortnavn": 14600000,
      "organisasjonsnavn": "KHM utstilling",
      "leder": [
        {
          "lederAnsattnr": "00101169",
          "lederBrukerident": "LAIORS"
        },
        {
          "lederAnsattnr": "00101171",
          "lederBrukerident": "LISWAT"
        },
        {
          "lederAnsattnr": "00101171",
          "lederBrukerident": "LISWAT"
        }
      ],
      "pdo": "TROM",
      "type": "88",
      "orgKostnadssted": "0014600000",
      "autWf": [
        {
          "type": "AZWF",
          "bruker": "9900INGANT",
          "knytningStart": "2020-09-01",
          "knytningSlutt": "9999-12-31"
        },
        {
          "type": "AZWF",
          "bruker": "9900INGEIN",
          "knytningStart": "2020-09-01",
          "knytningSlutt": "9999-12-31"
        }
      ],
      "overordnOrgenhetId": 10000043
    },
    {
      "id": 10000052,
      "orgKortnavn": 14800000,
      "organisasjonsnavn": "Forretningsdrift",
      "leder": [
        null
      ],
      "pdo": "TROM",
      "type": "88",
      "orgKostnadssted": "0014800000",
      "autWf": [
        null
      ],
      "overordnOrgenhetId": 10000050
    },
    {
      "id": 10000053,
      "orgKortnavn": 14900000,
      "organisasjonsnavn": "Brukernære tjenester",
      "leder": [
        {
          "lederAnsattnr": "00101175",
          "lederBrukerident": "PESOLO"
        }
      ],
      "pdo": "TROM",
      "type": "88",
      "orgKostnadssted": "0014900000",
      "autWf": [
        null
      ],
      "overordnOrgenhetId": 10000043
    },
    {
      "id": 10000053,
      "orgKortnavn": 14900000,
      "organisasjonsnavn": "Brukernære tjenester",
      "leder": [
        {
          "lederAnsattnr": "00101175",
          "lederBrukerident": "PESOLO"
        }
      ],
      "pdo": "TROM",
      "type": null,
      "orgKostnadssted": "0014900000",
      "autWf": [
        null
      ],
      "overordnOrgenhetId": 10000043
    },
    {
      "id": 10000053,
      "orgKortnavn": 14900000,
      "organisasjonsnavn": "Brukernære tjenester",
      "leder": [
        {
          "lederAnsattnr": "00101175",
          "lederBrukerident": "PESOLO"
        }
      ],
      "pdo": "TROM",
      "type": "88",
      "orgKostnadssted": "0014900000",
      "autWf": [
        null
      ],
      "overordnOrgenhetId": 10000043
    },
    {
      "id": 10000075,
      "orgKortnavn": "ToA",
      "organisasjonsnavn": "Tilsetting og arbeidskontrakt",
      "leder": [
        {
          "lederAnsattnr": "00101259",
          "lederBrukerident": "hola"
        },
        {
          "lederAnsattnr": "00101614"
        },
        {
          "lederAnsattnr": "00101634"
        }
      ],
      "pdo": "TROM",
      "type": "88",
      "orgKostnadssted": "0000000010",
      "autWf": [
        {
          "type": "AZWF",
          "bruker": "9900OPJO",
          "knytningStart": "2020-09-01",
          "knytningSlutt": "9999-12-31"
        },
        {
          "type": "AZWF",
          "bruker": "9900BRAD",
          "knytningStart": "2020-09-01",
          "knytningSlutt": "9999-12-31"
        },
        {
          "type": "A290",
          "bruker": "9900STPE",
          "knytningStart": "2020-04-23",
          "knytningSlutt": "9999-12-31"
        },
        {
          "type": "A290",
          "bruker": "9900KOPA",
          "knytningStart": "2020-04-23",
          "knytningSlutt": "9999-12-31"
        },
        {
          "type": "A290",
          "bruker": "9900KLOVN",
          "knytningStart": "2020-04-23",
          "knytningSlutt": "9999-12-31"
        },
        {
          "type": "A290",
          "bruker": "9900DEDA",
          "knytningStart": "2020-04-23",
          "knytningSlutt": "9999-12-31"
        },
        {
          "type": "A290",
          "bruker": "9900STHE",
          "knytningStart": "2020-04-23",
          "knytningSlutt": "9999-12-31"
        },
        {
          "type": "A290",
          "bruker": "9900MOKA",
          "knytningStart": "2020-04-23",
          "knytningSlutt": "9999-12-31"
        },
        {
          "type": "A290",
          "bruker": "9900TIEL",
          "knytningStart": "2020-04-23",
          "knytningSlutt": "9999-12-31"
        },
        {
          "type": "A290",
          "bruker": "9900OPJO",
          "knytningStart": "2020-04-23",
          "knytningSlutt": "9999-12-31"
        },
        {
          "type": "A290",
          "bruker": "9900BRAD",
          "knytningStart": "2020-04-23",
          "knytningSlutt": "9999-12-31"
        },
        {
          "type": "A290",
          "bruker": "9900KAFU",
          "knytningStart": "2020-08-18",
          "knytningSlutt": "9999-12-31"
        },
        {
          "type": "AZWF",
          "bruker": "9900KOPA",
          "knytningStart": "2020-09-01",
          "knytningSlutt": "9999-12-31"
        },
        {
          "type": "AZWF",
          "bruker": "9900STHE",
          "knytningStart": "2020-09-01",
          "knytningSlutt": "9999-12-31"
        },
        {
          "type": "AZWF",
          "bruker": "9900PHFJ",
          "knytningStart": "2020-09-01",
          "knytningSlutt": "9999-12-31"
        },
        {
          "type": "AZWF",
          "bruker": "9900KLOVN",
          "knytningStart": "2020-04-23",
          "knytningSlutt": "9999-12-31"
        },
        {
          "type": "A290",
          "bruker": "9900PHFJ",
          "knytningStart": "2020-06-05",
          "knytningSlutt": "9999-12-31"
        }
      ],
      "overordnOrgenhetId": 10000003
    },
    {
      "id": 10000076,
      "orgKortnavn": "Samfunn",
      "organisasjonsnavn": "Samfunnsvitenskapelige fakultet",
      "leder": [
        {
          "lederAnsattnr": "00101231",
          "lederBrukerident": "splu"
        },
        {
          "lederAnsattnr": "00101434"
        },
        {
          "lederAnsattnr": "00101452"
        },
        {
          "lederAnsattnr": "00101457"
        },
        {
          "lederAnsattnr": "00101693"
        },
        {
          "lederAnsattnr": "00101729"
        },
        {
          "lederAnsattnr": "00101733"
        },
        {
          "lederAnsattnr": "00101746"
        },
        {
          "lederAnsattnr": "00101749"
        },
        {
          "lederAnsattnr": "00101750"
        },
        {
          "lederAnsattnr": "00101751"
        },
        {
          "lederAnsattnr": "00101753"
        },
        {
          "lederAnsattnr": "00101754"
        },
        {
          "lederAnsattnr": "00101755"
        },
        {
          "lederAnsattnr": "00101756"
        },
        {
          "lederAnsattnr": "00101764"
        },
        {
          "lederAnsattnr": "00101771"
        },
        {
          "lederAnsattnr": "00101772"
        },
        {
          "lederAnsattnr": "00101775"
        },
        {
          "lederAnsattnr": "00101778"
        },
        {
          "lederAnsattnr": "00101780"
        },
        {
          "lederAnsattnr": "00101781"
        },
        {
          "lederAnsattnr": "00101783"
        }
      ],
      "pdo": "TROM",
      "type": "88",
      "orgKostnadssted": "0000000020",
      "autWf": [
        {
          "type": "A290",
          "bruker": "9900PHFJ",
          "knytningStart": "2020-07-08",
          "knytningSlutt": "9999-12-31"
        },
        {
          "type": "AZWF",
          "bruker": "9900PHFJ",
          "knytningStart": "2020-07-08",
          "knytningSlutt": "9999-12-31"
        }
      ],
      "overordnOrgenhetId": 10000075
    },
    {
      "id": 10000080,
      "orgKortnavn": "Marine",
      "organisasjonsnavn": "Avdeling for marine studier",
      "leder": [
        {
          "lederAnsattnr": "00101233",
          "lederBrukerident": "datr"
        },
        {
          "lederAnsattnr": "00101235",
          "lederBrukerident": "blto"
        },
        {
          "lederAnsattnr": "00101328"
        },
        {
          "lederAnsattnr": "00101341"
        },
        {
          "lederAnsattnr": "00101361"
        },
        {
          "lederAnsattnr": "00101367"
        },
        {
          "lederAnsattnr": "00101382"
        },
        {
          "lederAnsattnr": "00101384"
        },
        {
          "lederAnsattnr": "00101431"
        },
        {
          "lederAnsattnr": "00101445"
        },
        {
          "lederAnsattnr": "00101462"
        },
        {
          "lederAnsattnr": "00101469"
        },
        {
          "lederAnsattnr": "00101472"
        },
        {
          "lederAnsattnr": "00101476"
        },
        {
          "lederAnsattnr": "00101480"
        },
        {
          "lederAnsattnr": "00101489"
        },
        {
          "lederAnsattnr": "00101506"
        },
        {
          "lederAnsattnr": "00101522"
        },
        {
          "lederAnsattnr": "00101523"
        },
        {
          "lederAnsattnr": "00101592"
        },
        {
          "lederAnsattnr": "00101654"
        },
        {
          "lederAnsattnr": "00101657"
        },
        {
          "lederAnsattnr": "00101660"
        },
        {
          "lederAnsattnr": "00101675"
        },
        {
          "lederAnsattnr": "00101713"
        },
        {
          "lederAnsattnr": "00101731"
        },
        {
          "lederAnsattnr": "00101759"
        },
        {
          "lederAnsattnr": "00101760"
        },
        {
          "lederAnsattnr": "00101761"
        },
        {
          "lederAnsattnr": "00101763"
        },
        {
          "lederAnsattnr": "00101766"
        },
        {
          "lederAnsattnr": "00101767"
        },
        {
          "lederAnsattnr": "00101768"
        },
        {
          "lederAnsattnr": "00101769"
        },
        {
          "lederAnsattnr": "00101770"
        },
        {
          "lederAnsattnr": "00101773"
        },
        {
          "lederAnsattnr": "00101774"
        },
        {
          "lederAnsattnr": "00101776"
        },
        {
          "lederAnsattnr": "00101777"
        },
        {
          "lederAnsattnr": "00101782"
        },
        {
          "lederAnsattnr": "00101784"
        },
        {
          "lederAnsattnr": "00101785"
        },
        {
          "lederAnsattnr": "00101805"
        },
        {
          "lederAnsattnr": "00101831"
        },
        {
          "lederAnsattnr": "00101838"
        },
        {
          "lederAnsattnr": "00101934"
        },
        {
          "lederAnsattnr": "00101948"
        },
        {
          "lederAnsattnr": "00101961"
        },
        {
          "lederAnsattnr": "00101964"
        },
        {
          "lederAnsattnr": "00101971"
        },
        {
          "lederAnsattnr": "00102026"
        },
        {
          "lederAnsattnr": "00102033"
        },
        {
          "lederAnsattnr": "00102039"
        },
        {
          "lederAnsattnr": "00102046"
        },
        {
          "lederAnsattnr": "00102059"
        },
        {
          "lederAnsattnr": "00102106"
        },
        {
          "lederAnsattnr": "00102107"
        },
        {
          "lederAnsattnr": "00102108"
        },
        {
          "lederAnsattnr": "00102115"
        },
        {
          "lederAnsattnr": "00102115"
        },
        {
          "lederAnsattnr": "00102115"
        },
        {
          "lederAnsattnr": "00102118"
        },
        {
          "lederAnsattnr": "00102118"
        },
        {
          "lederAnsattnr": "00102118"
        },
        {
          "lederAnsattnr": "00102125"
        },
        {
          "lederAnsattnr": "00102137"
        },
        {
          "lederAnsattnr": "00102143"
        },
        {
          "lederAnsattnr": "00102144"
        },
        {
          "lederAnsattnr": "00102158"
        }
      ],
      "pdo": "TROM",
      "type": "88",
      "orgKostnadssted": "0000000030",
      "autWf": [
        null
      ],
      "overordnOrgenhetId": 10000076
    },
    {
      "id": 10000081,
      "orgKortnavn": "Fredstudier",
      "organisasjonsnavn": "Avdeling for fredsstudier",
      "leder": [
        {
          "lederAnsattnr": "00101239",
          "lederBrukerident": "hado"
        },
        {
          "lederAnsattnr": "00101343"
        }
      ],
      "pdo": "TROM",
      "type": "88",
      "orgKostnadssted": "0000000040",
      "autWf": [
        null
      ],
      "overordnOrgenhetId": 10000076
    },
    {
      "id": 10000082,
      "orgKortnavn": "Økonomiske",
      "organisasjonsnavn": "Økonomiske fakultet",
      "leder": [
        {
          "lederAnsattnr": "00101243",
          "lederBrukerident": "bljo"
        },
        {
          "lederAnsattnr": "00101269"
        }
      ],
      "pdo": "TROM",
      "type": "88",
      "orgKostnadssted": "0000000050",
      "autWf": [
        null
      ],
      "overordnOrgenhetId": 10000075
    },
    {
      "id": 10000083,
      "orgKortnavn": "markedsførin",
      "organisasjonsnavn": "Avdeling for markedsføring",
      "leder": [
        {
          "lederAnsattnr": "00101247",
          "lederBrukerident": "loed"
        },
        {
          "lederAnsattnr": "00101591"
        },
        {
          "lederAnsattnr": "00101594"
        },
        {
          "lederAnsattnr": "00101689"
        }
      ],
      "pdo": "TROM",
      "type": "88",
      "orgKostnadssted": "0000000060",
      "autWf": [
        null
      ],
      "overordnOrgenhetId": 10000082
    },
    {
      "id": 10000084,
      "orgKortnavn": "bedriftsøkon",
      "organisasjonsnavn": "Avdeling for bedriftsøkonomi",
      "leder": [
        {
          "lederAnsattnr": "00101251",
          "lederBrukerident": "lale"
        },
        {
          "lederAnsattnr": "00101587"
        }
      ],
      "pdo": "TROM",
      "type": "88",
      "orgKostnadssted": "0000000060",
      "autWf": [
        null
      ],
      "overordnOrgenhetId": 10000082
    },
    {
      "id": 10000085,
      "orgKortnavn": "Medisinske",
      "organisasjonsnavn": "Medisinske fakultet",
      "leder": [
        {
          "lederAnsattnr": "00101255",
          "lederBrukerident": "mame"
        },
        {
          "lederAnsattnr": "00101544"
        },
        {
          "lederAnsattnr": "00101867"
        },
        {
          "lederAnsattnr": "00101926"
        }
      ],
      "pdo": "TROM",
      "type": "88",
      "orgKostnadssted": "0000000080",
      "autWf": [
        null
      ],
      "overordnOrgenhetId": 10000075
    },
    {
      "id": 10000086,
      "orgKortnavn": "Avd medisin",
      "organisasjonsnavn": "Avdeling for medisin",
      "leder": [
        {
          "lederAnsattnr": "00101260",
          "lederBrukerident": "stpa"
        },
        {
          "lederAnsattnr": "00101839"
        }
      ],
      "pdo": "TROM",
      "type": "88",
      "orgKostnadssted": "0000000090",
      "autWf": [
        null
      ],
      "overordnOrgenhetId": 10000085
    },
    {
      "id": 10000087,
      "orgKortnavn": "psykologi",
      "organisasjonsnavn": "Avdeling for psykologi",
      "leder": [
        {
          "lederAnsattnr": "00101264",
          "lederBrukerident": "stto"
        },
        {
          "lederAnsattnr": "00101557"
        },
        {
          "lederAnsattnr": "00101640"
        },
        {
          "lederAnsattnr": "00101649"
        },
        {
          "lederAnsattnr": "00101651"
        }
      ],
      "pdo": "TROM",
      "type": "88",
      "orgKostnadssted": "0000000100",
      "autWf": [
        null
      ],
      "overordnOrgenhetId": 10000085
    },
    {
      "id": 10000100,
      "orgKortnavn": 12900000,
      "organisasjonsnavn": "Institutt for utviklingsstudier",
      "leder": [
        null
      ],
      "pdo": null,
      "type": null,
      "orgKostnadssted": null,
      "autWf": [
        null
      ],
      "overordnOrgenhetId": null
    },
    {
      "id": 10000126,
      "orgKortnavn": "Lønn utvk",
      "organisasjonsnavn": "Lønn utvikling",
      "leder": [
        {
          "lederAnsattnr": "00101791"
        }
      ],
      "pdo": "TROM",
      "type": "88",
      "orgKostnadssted": "0000000010",
      "autWf": [
        null
      ],
      "overordnOrgenhetId": 10000003
    }
  ]
}
