{
  "id": 10000023,
  "orgKortnavn": 12300000,
  "organisasjonsnavn": "Institutt for tester",
  "leder": [
    null
  ],
  "PDO": "BERG",
  "type": null,
  "orgKostnadssted": "0012300000",
  "autWf": [
    null
  ],
  "overordnOrgenhetId": 10000011
}
